…
## Examples

``` r
rnp_cluster_hierarquico(mtcars[, c("mpg", "hp", "wt")], k = 3)
#> 
#> ── Cluster hierarquico ─────────────────────────────────────────────────────────
#> Modelo: objeto <hclust>
#> 
#> ── Grupos 
#> # A tibble: 32 × 2
#>    observacao grupo
#>         <int> <int>
#>  1          1     1
#>  2          2     1
#>  3          3     1
#>  4          4     1
#>  5          5     1
#>  6          6     1
#>  7          7     2
#>  8          8     1
#>  9          9     1
#> 10         10     1
#> # ℹ 22 more rows
…
