…
## Examples

``` r
rnp_ts_periodograma(as.numeric(AirPassengers))
#> # A tibble: 72 × 3
#>    frequencia periodo densidade
#>         <dbl>   <dbl>     <dbl>
#>  1     0.0069   144      7737. 
#>  2     0.0139    72       699. 
#>  3     0.0208    48      4144. 
#>  4     0.0278    36       149. 
#>  5     0.0347    28.8     482. 
#>  6     0.0417    24       247. 
#>  7     0.0486    20.6      23.3
#>  8     0.0556    18       624. 
#>  9     0.0625    16       128. 
#> 10     0.0694    14.4     965. 
#> # ℹ 62 more rows
```
