Analise de componentes principais (PCA) — rnp_pca • rnp
…
loadings: tibble.

variância: tibble com PC, variância, variância acumulada,
percentual.

    Examples

rnp_pca(mtcars[, c("mpg", "disp", "hp", "drat", "wt")])
#> 
#> ── Analise de componentes principais (PCA) ─────────────────────────────────────
#> Modelo: objeto <prcomp>
#> 
#> ── Scores 
#> # A tibble: 32 × 5
#>       PC1     PC2     PC3     PC4     PC5
#>     <dbl>   <dbl>   <dbl>   <dbl>   <dbl>
#>  1 -1.08   0.0884  0.120   0.321  -0.211 
#>  2 -0.955  0.0551  0.285   0.282  -0.0584
#>  3 -1.63  -0.160  -0.0891  0.41   -0.0998
#>  4  0.164 -1.07   -0.275  -0.242  -0.132 
#>  5  1.22  -0.278  -0.392  -0.479  -0.344 
#>  6  0.619 -1.55   -0.316   0.336   0.0184
#>  7  2.00   0.532  -0.625   0.0241 -0.186 
#>  8 -1.26  -0.797   0.515  -0.093   0.202 
#>  9 -1.14  -0.137   0.524   0.111   0.229 
#> 10 -0.451  0.167   0.637   0.378   0.194 
#> # ℹ 22 more rows
…
