…
## Examples

``` r
rnp_media_movel(as.numeric(AirPassengers), k = 12)
#> # A tibble: 144 × 3
#>    tempo original media_movel
#>    <int>    <dbl>       <dbl>
#>  1     1      112        NaN 
#>  2     2      118        NaN 
#>  3     3      132        NaN 
#>  4     4      129        NaN 
#>  5     5      121        NaN 
#>  6     6      135        NaN 
#>  7     7      148        127.
#>  8     8      148        127.
#>  9     9      136        128.
#> 10    10      119        128.
#> # ℹ 134 more rows
```
