…
#> ── Resumo de valores faltantes ─────────────────────────────────────────────────
#> 
#> ── Por variavel 
#> # A tibble: 6 × 3
#>   variavel n_faltantes percentual
#>   <chr>          <dbl>      <dbl>
#> 1 Ozone             37     0.242 
#> 2 Solar.R            7     0.0458
#> 3 Wind               0     0     
#> 4 Temp               0     0     
#> 5 Month              0     0     
#> 6 Day                0     0     
#> 
#> ── Por observacao 
#> # A tibble: 153 × 3
#>    observacao n_faltantes percentual
#>         <dbl>       <dbl>      <dbl>
#>  1          1           0      0    
#>  2          2           0      0    
#>  3          3           0      0    
#>  4          4           0      0    
#>  5          5           2      0.333
#>  6          6           1      0.167
#>  7          7           0      0    
#>  8          8           0      0    
#>  9          9           0      0    
#> 10         10           1      0.167
#> # ℹ 143 more rows
…
