Cluster K-Means — rnp_kmeans • rnp
…
clusters: tibble com cluster atribuido a cada observacao.

centros: tibble com centroides.

metricas: tibble com wss_total, between_ss, ratio_ss.

    Examples

rnp_kmeans(mtcars[, c("mpg", "hp", "wt")], k = 3)
#> 
#> ── Cluster k-medias ────────────────────────────────────────────────────────────
#> Modelo: objeto <kmeans>
#> 
#> ── Clusters 
#> # A tibble: 32 × 2
#>    observacao cluster
#>         <int>   <int>
#>  1          1       2
#>  2          2       2
#>  3          3       2
#>  4          4       2
#>  5          5       2
#>  6          6       2
#>  7          7       1
#>  8          8       2
#>  9          9       2
#> 10         10       2
#> # ℹ 22 more rows
…
