Decomposicao de serie temporal — rnp_ts_decomposicao • rnp
…
#> 23 -0.60470060  1.02093920  0.08687204  0.53223303
#> 24 -1.21694295 -0.09787337  1.31852292  0.03708569
#> 25 -1.54125333  1.34431331          NA          NA
#> 
#> $figure
#> [1] -1.5340820 -0.4686385  0.4022118  1.6005087
#> 
#> $type
#> [1] "additive"
#> 
#> attr(,"class")
#> [1] "decomposed.ts"
#> 
#> $componentes
#> # A tibble: 100 × 6
#>    observacao tempo observada tendencia sazonal aleatorio
#>         <int> <dbl>     <dbl>     <dbl>   <dbl>     <dbl>
#>  1          1  1        0.610     NA     -1.53     NA    
#>  2          2  1.25     2.38      NA     -0.469    NA    
#>  3          3  1.5      3.24       2.47   0.402     0.370
#>  4          4  1.75     2.57       2.71   1.60     -1.74 
#>  5          5  2        2.78       2.75  -1.53      1.56 
#>  6          6  2.25     2.13       3.11  -0.469    -0.508
#>  7          7  2.5      3.77       3.18   0.402     0.184
#>  8          8  2.75     4.96       2.90   1.60      0.458
#>  9          9  3        0.949      2.86  -1.53     -0.374
#> 10         10  3.25     1.69       2.62  -0.469    -0.46 
#> # ℹ 90 more rows
…
