Funcao de correlacao cruzada (CCF) — rnp_ts_ccf • rnp
…
    Examples

rnp_ts_ccf(as.numeric(mdeaths), as.numeric(fdeaths))$tabela
#> # A tibble: 31 × 2
#>      lag     ccf
#>    <dbl>   <dbl>
#>  1   -15  0.0151
#>  2   -14  0.366 
#>  3   -13  0.615 
#>  4   -12  0.708 
#>  5   -11  0.622 
#>  6   -10  0.34  
#>  7    -9 -0.0245
#>  8    -8 -0.382 
#>  9    -7 -0.612 
#> 10    -6 -0.678 
#> # ℹ 21 more rows
…
